{
	"id": "7b76d0c6-84d7-4b00-99ce-d49026c02b15",
	"name": "Manfred's environment",
	"values": [
		{
			"key": "token",
			"value": "",
			"enabled": true
		},
		{
			"key": "baseUrl",
			"value": "localhost:10000",
			"enabled": true
		},
		{
			"key": "testvar",
			"value": "",
			"enabled": true
		},
		{
			"key": "clientID",
			"value": "",
			"enabled": true
		},
		{
			"key": "txId",
			"value": "",
			"enabled": true
		},
		{
			"key": "",
			"value": "",
			"enabled": false
		}
	],
	"_postman_variable_scope": "environment",
	"_postman_exported_at": "2021-08-18T16:01:56.693Z",
	"_postman_exported_using": "Postman/8.9.1"
}